{
  "TITLE" : "Контактная информация",
  "TEXT" : "Приветствуем вас на борту легендарного парусника “Крузенштерн”. Здесь вы сможете найти исчерпывающую информацю про барк. На другой день встал на якорь в заливе, названном им заливом Надежды; 4 августа пошёл обратно в Камчатку, где исправление корабля и пополнение запасов задержали его до 23 сентября. При выходе из Авачинской губы из-за тумана и снега, корабль едва не сел на мель.",
  "ITEMS" : {
    "0" : {
      "TITLE" : "Управление мореплавания и практической подготовки БГАРФ",
      "ADDRESS" : "г. Калининград, ул. Молодежная 6, корпус 1, каб. 223",
      "FIO" : "Васильева Наталья Сергеевна",
      "TEL" : "+7 (4012) 92-51-69 ",
      "EMAIL" : "kruz_market@bga.gazinter.net",
      "WEB" : "keypoint.ru"
    },
    "1" : {
      "TITLE" : "Морская Практика",
      "ADRESS" : "Москва, ул. Покрышкина, дом 8, корп.1, офис 5",
      "FIO" : "Константин Леонидович Попов",
      "TEL" : "тел.: +7 (495) 9973882; +7 (962) 9592244<br />Skype: <a href='#this'>popov-konstantin</a>",
      "EMAIL" : "info@sea-practice.ru <br />www.sea-practice.ru"
    },
    "2" : {
      "TITLE" : "Inmaris Maritime Service GmbH",
      "ADRESS" : "Mattentwiete 8, 20457 Hamburg, Germany",
      "FIO" : "Alexander Goehring, Mr.Ph.",
      "TEL" : "Tel.: +49 40 372797<br />Fax: +49 40 371736<br />Mobile: +49-171-522 72 59<br />",
      "EMAIL" : "goehring@inmaris.de"
    },
    "3" : {
      "TITLE" : "Hanse Sail Verein e.V.",
      "ADRESS" : "Tall-Ship Buchungszentrale Warnowufer 65, 18057 Rostock, Germany",
      "FIO" : "Wolfgang Bischop",
      "TEL" : "Tel.: 0381 2085276/61<br />Fax: 0381 3 777 466",
      "EMAIL" : "www.hansesail.com"
    },
    "4" : {
      "TITLE" : "Pennsylvania Ship Supply, Inc.",
      "ADRESS" : "402 East Pennsylvania Blvd. Feasterville, PA 19053, USA",
      "FIO" : "Gary Khusidman",
      "TEL" : "Tel.: +1-215-396-2400<br />Fax: +1-215-396-2404",
      "EMAIL" : "pennship@pennship.com<br />www.pennship.com"
    }
  }
}