{
  "TITLE" : "Галерея",
  "TEXT" : "<p class='text-p'>Приветствуем вас на борту легендарного парусника “Крузенштерн”. Здесь вы сможете найти исчерпывающую информацю про барк. На другой день встал на якорь в заливе, названном им заливом Надежды; 4 августа пошёл обратно в Камчатку, где исправление корабля и пополнение запасов задержали его до 23 сентября. При выходе из Авачинской губы из-за тумана и снега, корабль едва не сел на мель. </p><p class='text-p'>На пути к Китаю он тщетно искал острова, показанные на старых испанских картах, выдержал несколько штормов и 15 ноября пришёл в Макао. 21 ноября, когда «Надежда» была уже совсем готова идти в море, пришёл корабль «Нева» с богатым грузом пушных товаров и остановился в Вампоа, куда перешёл и корабль «Надежда». В начале января 1806 г. экспедиция окончила свои торговые дела, но была задержана китайским портовым начальством без всякой особенной причины, и только 28 января русские суда оставили китайские берега.</p>"
}