{
  "TITLE" : "Крузенштерн в движении",
  "VIDEO" : {
    "0" : {"FILE": "/source/build/assets/video/video-2015.mp4", "VIDEO_TITLE" : "Барк заходит<br />в гавань Севастополя", "NEXT_NAME" : "Барк заходит<br />в гавань Севастополя"},
    "1" : {"FILE": "/source/build/assets/video/video-2015.mp4", "VIDEO_TITLE" : "Проход барка<br />по каналам Амстердама", "NEXT_NAME" : "Барк заходит<br />в гавань Севастополя"},
    "3" : {"FILE": "/source/build/assets/video/video-2015.mp4", "VIDEO_TITLE" : "Барк заходит<br />в гавань Севастополя", "NEXT_NAME" : "Барк заходит<br />в гавань Севастополя"},
    "4" : {"FILE": "/source/build/assets/video/video-2015.mp4", "VIDEO_TITLE" : "Барк заходит<br />в гавань Севастополя", "NEXT_NAME" : "Барк заходит<br />в гавань Севастополя"}
  },
  "NEXT" : "следующий ролик:",
  "NEXT_NAME" : "Проход барка по каналам Амстердама"
}