<?xml version="1.0" encoding="utf-8"?>
<!-- Generator: Adobe Illustrator 19.1.1, SVG Export Plug-In . SVG Version: 6.00 Build 0)  -->
<svg version="1.1" id="лого_1_" xmlns="http://www.w3.org/2000/svg" xmlns:xlink="http://www.w3.org/1999/xlink" x="0px"
	 y="0px" viewBox="274.9 397 355.2 61.6" style="enable-background:new 274.9 397 355.2 61.6;" xml:space="preserve">
<style type="text/css">
	.st0{fill:#FFFFFF;}
</style>
<path class="st0" d="M303.3,441c0-1.2,0.1-2.3,0-3.6c-2-0.1-2.9-1.4-3.4-2.4s-7.3-17.8-7.3-17.8s7.1-13.7,7.9-14.3
	c0.8-0.7,3.5-1.6,3.5-1.6s-0.2-2.2-0.4-2.5c-0.2-0.3-4.4-0.4-7.4,0s-5.6,3.9-5.6,3.9l-6,10.5c0,0-0.6,0.5-0.6,0s0-14.7,0-14.7h-9
	l-0.1,42.2l9.1-0.1c0,0-0.1-18.8-0.1-19.3c0-0.6,0.7,0.1,0.7,0.1s4.4,11.4,5.6,13.6c2.8,6.4,11.5,6.4,11.5,6.4
	S302.8,441.3,303.3,441z M320.6,397c-0.3-0.1-4.4,2.6-5.8,3.7c-1.4,1.1-5.8,4.6-7.9,11.6c-0.8,2.6-0.5,17.6-0.5,17.6
	s0.2,17.4-0.3,20.3c-0.8,4-5.1,4.7-5.1,4.7l-0.1,3.5c0,0,9-0.5,13.1-8.1c2.4-4.5,2.4-12.7,2.4-12.7s4.3,2.7,5.2,2.9
	c0.5-0.1,5.7-4.9,8.2-8.1c2.5-3.3,4.8-7.5,3.8-16.7C332.3,404.9,320.9,397.1,320.6,397z M321.8,434.7c0,0-5.2-1.2-5.2-2.9
	c-0.2-4.6-0.2-24,0.1-24.4s1-0.9,1-0.9s6.3,3.3,7.2,11.7C325.7,426.7,321.8,434.7,321.8,434.7z M355,436.5c-0.2,0.5-0.3,0-0.3,0
	s-5-22.7-6.3-28.3s-3.6-7-5.6-8.4s-9.5-1.1-9.5-1.1l-0.2,2.5c0,0,0.8,0.2,1.2,0.5c0.4,0.2,2.4,0.6,2.8,3.3
	c0.4,2.7,7.6,34.9,8.2,35.8c0.5,0.1,8.5,0,8.8,0.1s0.1,8.7-2.4,10.8c-2.4,2.1-6.9,2.9-6.9,2.9l-0.2,4l0.5-0.1c0,0,1.1,0,6.1-1.6
	s6.1-7.6,6.1-7.6l7.8-50.6h-4.5C360.9,398.4,355.1,436,355,436.5z M388,411.7c0,0,3-2.9,2.7-7.5c-0.2-4.5-3.6-5.7-4.8-5.9
	c-1.2-0.2-13.9,0-14.3,0c-0.5,0-0.7,0-0.7,0.7c0,1.1-0.1,1.1-0.1,5.9c0,3.8-3.8,7.5-3.9,7.6c0,0,0.8,1.4,1.1,1.6
	c0.3,0.3,5.1-1.7,7.4-5.1c2.2-3.4,3.3-5.6,3.3-5.6s0.9,0.3,1.6,1.4s1.3,3.5,0.2,5.2c-1.1,1.7-4.1,1.6-4.4,1.7
	c-0.3,0.1-0.4,3.7-0.2,3.8c0.1,0.1,5.2-0.2,7.3-0.1c2.2,0.2,2.2,2,2.1,2.6c-0.6,2-4,8.6-10.8,13.7c-0.5-0.2-3.9-3.7-4.1-3.8
	s-2.2,1.9-2.8,2.8c4.6,7.5,12.5,11.4,12.5,11.4s7.7-8.1,10.5-12.2s4.9-9.6,1-15.1C390.7,413.2,388,411.7,388,411.7z M424.6,426.1
	c-0.1-0.3-1.5-1.5-1.8-1.7c-0.3-0.2-6.6,4.6-7.9,12.6c-0.4,0-9.1-1.8-9.2-13.9c0-0.3-0.1-0.9,0.8-0.9c1,0,16.7,0,16.7-0.5
	c0.1-0.5-0.1-3.9-0.3-4c-0.2-0.1-14.9,0.1-15.4,0s-0.3-0.5-0.2-1c0.4-2.1,6.5-10.2,7.7-10.4c1.2,0.5,6.9,4.3,7.1,4.3
	c0.3,0,1.9-2,2.4-2.6c0-0.3-6.5-6.7-12.7-10.7c-0.6,0-10.5,7.6-13.6,15.3c-3.4,8.3-1.5,14.3,1.3,19.8s9.7,9.3,17.2,9.4
	c3.1,0,5.1-0.8,5.1-0.8s-0.6-4.3-0.1-7.3C422.4,430.8,424.7,426.4,424.6,426.1z M448.9,398.4v18.1l-4.2-4c0,0-2.8,2.8-4.2,4.2
	c0-0.7-0.1-18-0.1-18l-9.6-0.1l-0.1,42h9.9c0,0-0.2-20.6,0.1-20.7c0.6,0.7,4.2,3.9,4.2,3.9s4-3.6,4.2-3.6c0.1,0.1,0.1,20.3,0.1,20.3
	l9.5,0.1v-42.1L448.9,398.4z M493.3,436.9H485c0,0,4.2-9.1,4.3-13.6c0-5.8-3.7-7.9-4.5-16.2c-0.4-4.6,3.4-8.8,3.4-8.8l-3.5-0.6
	c0,0-7.4,9.2-7.5,14.7c0,5.5,2.1,10.3,3.9,13.2s2.6,6.9,1.8,8.4c-1,2.1-1.2,2.7-1.2,2.7h-7.9v-38.2h-9.2v42l38.5,0.1l0.3-42.1
	l-9.6-0.1L493.3,436.9z M533.8,398.5H512c0,0-0.5,3.4-1.2,6.3s-3.5,6.9-3.5,6.9l1.6,2.1c0,0,2.6-1.6,3.9-3c1.2-1.3,5.1-5.7,5.1-5.7
	s0.5-0.2,0.5,0.2s0,35.3,0,35.3h9.1c0,0,0-34.6,0-35.2s0.7-0.1,0.7-0.1s5.8,7.1,8.5,8.6c1-1,1.6-2.2,1.6-2.2s-0.4-0.5-2-2.8
	C534.7,406.5,533.8,398.5,533.8,398.5z M564.2,433.8c0.5-3,2.8-7.4,2.7-7.7c-0.1-0.3-1.5-1.5-1.8-1.7c-0.3-0.2-6.5,4.6-7.8,12.6
	c-0.4,0-9.1-1.8-9.3-13.9c0-0.3-0.1-0.9,0.8-0.9c1,0,16.7,0,16.7-0.5c0.1-0.5-0.1-3.9-0.3-4c-0.2-0.1-14.9,0.1-15.4,0
	s-0.3-0.5-0.2-1c0.4-2.1,6.4-10.2,7.6-10.4c1.2,0.5,6.9,4.3,7.2,4.3s1.8-2,2.4-2.6c0-0.3-6.5-6.7-12.7-10.7
	c-0.6,0-10.4,7.6-13.5,15.3c-3.3,8.3-1.4,14.3,1.4,19.8s9.8,9.3,17.3,9.4c3.1,0,5.1-0.8,5.1-0.8S563.6,436.8,564.2,433.8z
	 M585.2,397c-0.3-0.1-4.4,2.6-5.8,3.7c-1.4,1.1-5.8,4.6-7.9,11.6c-0.8,2.6-0.5,17.6-0.5,17.6s0.2,17.4-0.3,20.3
	c-0.8,4-5.1,4.7-5.1,4.7l-0.1,3.5c0,0,9-0.5,13.1-8.1c2.4-4.5,2.4-12.7,2.4-12.7s4.3,2.7,5.2,2.9c0.5-0.1,5.7-4.9,8.2-8.1
	c2.5-3.3,4.8-7.5,3.8-16.7C596.8,404.9,585.4,397.1,585.2,397z M586.3,434.7c0,0-5.2-1.2-5.2-2.9c-0.2-4.6-0.2-24,0.1-24.4
	s1-0.9,1-0.9s6.3,3.3,7.2,11.7C590.2,426.7,586.3,434.7,586.3,434.7z M630.1,440.5v-42.1h-9.5v18.1l-4.2-4c0,0-2.8,2.8-4.2,4.2
	c0-0.7-0.1-18-0.1-18l-9.6-0.1l-0.1,42h9.9c0,0-0.2-20.6,0.1-20.7c0.6,0.7,4.2,3.9,4.2,3.9s4-3.6,4.2-3.6c0.1,0.1,0.1,20.3,0.1,20.3
	H630.1z"/>
</svg>
